mux/wave.vcd
$version Generated by VerilatedVcd $end
$date Sun May 15 19:39:45 2022 $end
$timescale 1ps $end

 $scope module top $end
  $var wire  2 7 f [1:0] $end
  $var wire  2 2 x0 [1:0] $end
  $var wire  2 3 x1 [1:0] $end
  $var wire  2 4 x2 [1:0] $end
  $var wire  2 5 x3 [1:0] $end
  $var wire  2 6 y [1:0] $end
  $scope module mux41_2 $end
   $var wire  2 7 f [1:0] $end
   $var wire  2 2 x0 [1:0] $end
   $var wire  2 3 x1 [1:0] $end
   $var wire  2 4 x2 [1:0] $end
   $var wire  2 5 x3 [1:0] $end
   $var wire  2 6 y [1:0] $end
   $scope module m0 $end
    $var wire 32 9 DATA_LEN [31:0] $end
    $var wire 32 9 KEY_LEN [31:0] $end
    $var wire 32 8 NR_KEY [31:0] $end
    $var wire  2 6 key [1:0] $end
    $var wire 16 # lut [15:0] $end
    $var wire  2 7 out [1:0] $end
    $scope module i0 $end
     $var wire 32 9 DATA_LEN [31:0] $end
     $var wire 32 : HAS_DEFAULT [31:0] $end
     $var wire 32 9 KEY_LEN [31:0] $end
     $var wire 32 8 NR_KEY [31:0] $end
     $var wire 32 8 PAIR_LEN [31:0] $end
     $var wire  2 , data_list[0] [1:0] $end
     $var wire  2 - data_list[1] [1:0] $end
     $var wire  2 . data_list[2] [1:0] $end
     $var wire  2 / data_list[3] [1:0] $end
     $var wire  2 ; default_out [1:0] $end
     $var wire  1 1 hit $end
     $var wire 32 < i [31:0] $end
     $var wire  2 6 key [1:0] $end
     $var wire  2 ( key_list[0] [1:0] $end
     $var wire  2 ) key_list[1] [1:0] $end
     $var wire  2 * key_list[2] [1:0] $end
     $var wire  2 + key_list[3] [1:0] $end
     $var wire 16 # lut [15:0] $end
     $var wire  2 0 lut_out [1:0] $end
     $var wire  2 7 out [1:0] $end
     $var wire  4 $ pair_list[0] [3:0] $end
     $var wire  4 % pair_list[1] [3:0] $end
     $var wire  4 & pair_list[2] [3:0] $end
     $var wire  4 ' pair_list[3] [3:0] $end
    $upscope $end
   $upscope $end
  $upscope $end
 $upscope $end
$enddefinitions $end


#0
b0000010110101111 #
b1111 $
b1010 %
b0101 &
b0000 '
b11 (
b10 )
b01 *
b00 +
b11 ,
b10 -
b01 .
b00 /
b00 0
11
b00 2
b01 3
b10 4
b11 5
b00 6
b00 7
b00000000000000000000000000000100 8
b00000000000000000000000000000010 9
b00000000000000000000000000000000 :
b00 ;
b00000000000000000000000000000100 <
#1
b01 0
b01 6
b01 7
#2
b10 0
b10 6
b10 7
#3
b11 0
b11 6
b11 7
#4
b00 0
b00 6
b00 7
#5
b01 0
b01 6
b01 7
#6
b10 0
b10 6
b10 7
#7
b11 0
b11 6
b11 7
#8
b00 0
b00 6
b00 7
#9
b01 0
b01 6
b01 7
#10
b10 0
b10 6
b10 7
#11
b11 0
b11 6
b11 7
#12
b00 0
b00 6
b00 7
#13
b01 0
b01 6
b01 7
#14
b10 0
b10 6
b10 7
#15
b11 0
b11 6
b11 7
#16
b00 0
b00 6
b00 7
#17
b01 0
b01 6
b01 7
#18
b10 0
b10 6
b10 7
#19
b11 0
b11 6
b11 7
#20
b00 0
b00 6
b00 7
